%YAML 1.1
%TAG !u! tag:unity3d.com,2011:
--- !u!1 &793148749041878968
GameObject:
  m_ObjectHideFlags: 0
  m_CorrespondingSourceObject: {fileID: 0}
  m_PrefabInstance: {fileID: 0}
  m_PrefabAsset: {fileID: 0}
  serializedVersion: 6
  m_Component:
  - component: {fileID: 793148749041878597}
  - component: {fileID: 793148749041878596}
  - component: {fileID: 793148749041878971}
  - component: {fileID: 793148749041878970}
  m_Layer: 0
  m_Name: Pantograph
  m_TagString: Untagged
  m_Icon: {fileID: 0}
  m_NavMeshLayer: 0
  m_StaticEditorFlags: 0
  m_IsActive: 1
--- !u!4 &793148749041878597
Transform:
  m_ObjectHideFlags: 0
  m_CorrespondingSourceObject: {fileID: 0}
  m_PrefabInstance: {fileID: 0}
  m_PrefabAsset: {fileID: 0}
  m_GameObject: {fileID: 793148749041878968}
  m_LocalRotation: {x: 0, y: 0, z: 0, w: 1}
  m_LocalPosition: {x: 0, y: 0, z: 0}
  m_LocalScale: {x: 1, y: 1, z: 1}
  m_Children: []
  m_Father: {fileID: 0}
  m_RootOrder: 0
  m_LocalEulerAnglesHint: {x: 0, y: 0, z: 0}
--- !u!114 &793148749041878596
MonoBehaviour:
  m_ObjectHideFlags: 0
  m_CorrespondingSourceObject: {fileID: 0}
  m_PrefabInstance: {fileID: 0}
  m_PrefabAsset: {fileID: 0}
  m_GameObject: {fileID: 793148749041878968}
  m_Enabled: 1
  m_EditorHideFlags: 0
  m_Script: {fileID: 11500000, guid: caae2930a4d29934f99cada4224e6f12, type: 3}
  m_Name: 
  m_EditorClassIdentifier: 
  m_WindowsComPort: 
  m_MacComPort: 
  m_BaudRate: 0
  m_SerialTimeout: 0
  receivedPacketSize: 0
--- !u!114 &793148749041878971
MonoBehaviour:
  m_ObjectHideFlags: 0
  m_CorrespondingSourceObject: {fileID: 0}
  m_PrefabInstance: {fileID: 0}
  m_PrefabAsset: {fileID: 0}
  m_GameObject: {fileID: 793148749041878968}
  m_Enabled: 1
  m_EditorHideFlags: 0
  m_Script: {fileID: 11500000, guid: b39ad931833d8264c9a438d7acb1f640, type: 3}
  m_Name: 
  m_EditorClassIdentifier: 
  m_DeviceID: 0
  m_Mechanism: {fileID: 793148749041878970}
  m_BoardLink: {fileID: 793148749041878596}
--- !u!114 &793148749041878970
MonoBehaviour:
  m_ObjectHideFlags: 0
  m_CorrespondingSourceObject: {fileID: 0}
  m_PrefabInstance: {fileID: 0}
  m_PrefabAsset: {fileID: 0}
  m_GameObject: {fileID: 793148749041878968}
  m_Enabled: 1
  m_EditorHideFlags: 0
  m_Script: {fileID: 11500000, guid: d9d606590c98fa746bc7414aba2f4168, type: 3}
  m_Name: 
  m_EditorClassIdentifier: 
  m_Length1: 0.07
  m_Length2: 0.09
  m_Distance: 0
